{
  "sections": {
    "main": {
      "type": "collection-template",
      "settings": {
        "featured_collection_image": true,
        "wide_display": false,
        "image": "shopify:\/\/shop_images\/common-projects-06-2.webp",
        "mobile_image_crop": "none",
        "caption_content_background": "original",
        "display_collection_title": true,
        "collection_breadcrumb": true,
        "collection_tags": false,
        "collection_sort": false,
        "products_per_row": 3,
        "pagination_limit": 50,
        "toggle": false
      }
    }
  },
  "order": [
    "main"
  ]
}